{
  "version": 1,
  "type": "doc",
  "content": [
    {
      "type": "mediaSingle",
      "attrs": {
        "width": 50,
        "layout": "center"
      },
      "content": [
        {
          "type": "media",
          "attrs": {
            "type": "external",
            "width": 320,
            "height": 320,
            "url": "data:image/gif;base64,R0lGODlhAQABAIAAAMLCwgAAACH5BAAAAAAALAAAAAABAAEAAAICRAEAOw=="
          }
        }
      ],
      "marks": [
        {
          "type": "link",
          "attrs": {
            "href": "https://product-fabric.atlassian.net/browse/FAB-983"
          }
        }
      ]
    },
    {
      "type": "paragraph",
      "content": []
    }
  ]
}
