{
  "version": 1,
  "type": "doc",
  "content": [
    {
      "type": "table",
      "attrs": {
        "isNumberColumnEnabled": false,
        "layout": "default"
      },
      "content": [
        {
          "type": "tableRow",
          "content": [
            {
              "type": "tableHeader",
              "attrs": {},
              "content": [
                {
                  "type": "paragraph",
                  "content": []
                }
              ]
            },
            {
              "type": "tableHeader",
              "attrs": {},
              "content": [
                {
                  "type": "paragraph",
                  "content": []
                }
              ]
            },
            {
              "type": "tableHeader",
              "attrs": {},
              "content": [
                {
                  "type": "paragraph",
                  "content": []
                }
              ]
            }
          ]
        },
        {
          "type": "tableRow",
          "content": [
            {
              "type": "tableCell",
              "attrs": {},
              "content": [
                {
                  "type": "mediaSingle",
                  "attrs": {
                    "width": 63.33333333333333,
                    "layout": "wrap-left"
                  },
                  "content": [
                    {
                      "type": "media",
                      "attrs": {
                        "id": "a559980d-cd47-43e2-8377-27359fcb905f",
                        "type": "file",
                        "collection": "MediaServicesSample",
                        "width": 520,
                        "height": 520
                      }
                    }
                  ]
                },
                {
                  "type": "paragraph",
                  "content": []
                }
              ]
            },
            {
              "type": "tableCell",
              "attrs": {},
              "content": [
                {
                  "type": "paragraph",
                  "content": []
                }
              ]
            },
            {
              "type": "tableCell",
              "attrs": {},
              "content": [
                {
                  "type": "paragraph",
                  "content": []
                }
              ]
            }
          ]
        },
        {
          "type": "tableRow",
          "content": [
            {
              "type": "tableCell",
              "attrs": {},
              "content": [
                {
                  "type": "paragraph",
                  "content": []
                }
              ]
            },
            {
              "type": "tableCell",
              "attrs": {},
              "content": [
                {
                  "type": "paragraph",
                  "content": []
                }
              ]
            },
            {
              "type": "tableCell",
              "attrs": {},
              "content": [
                {
                  "type": "paragraph",
                  "content": []
                }
              ]
            }
          ]
        }
      ]
    }
  ]
}
